{
  "devFiles": [],
  "pages": {
    "/": [
      "static/runtime/webpack-776d5458f349c1ff8e96.js",
      "static/css/commons.2091529f.chunk.css",
      "static/chunks/commons.44ae94e8e51a83918ec7.js",
      "static/runtime/main-4df0a69ba709ea438d84.js"
    ],
    "/_app": [
      "static/runtime/webpack-776d5458f349c1ff8e96.js",
      "static/css/commons.2091529f.chunk.css",
      "static/chunks/commons.44ae94e8e51a83918ec7.js",
      "static/css/styles.07b9574d.chunk.css",
      "static/chunks/styles.82f9d5dade789899e195.js",
      "static/runtime/main-4df0a69ba709ea438d84.js"
    ],
    "/_error": [
      "static/runtime/webpack-776d5458f349c1ff8e96.js",
      "static/css/commons.2091529f.chunk.css",
      "static/chunks/commons.44ae94e8e51a83918ec7.js",
      "static/css/styles.07b9574d.chunk.css",
      "static/chunks/styles.82f9d5dade789899e195.js",
      "static/runtime/main-4df0a69ba709ea438d84.js"
    ],
    "/_polyfills": [
      "static/runtime/polyfills-3b8a20e761a14360a71b.js"
    ],
    "/index": [
      "static/runtime/webpack-776d5458f349c1ff8e96.js",
      "static/css/commons.2091529f.chunk.css",
      "static/chunks/commons.44ae94e8e51a83918ec7.js",
      "static/runtime/main-4df0a69ba709ea438d84.js"
    ],
    "/results/[departure_iata]/[arrival_iata]": [
      "static/runtime/webpack-776d5458f349c1ff8e96.js",
      "static/css/commons.2091529f.chunk.css",
      "static/chunks/commons.44ae94e8e51a83918ec7.js",
      "static/css/styles.07b9574d.chunk.css",
      "static/chunks/styles.82f9d5dade789899e195.js",
      "static/runtime/main-4df0a69ba709ea438d84.js"
    ],
    "/search/[departure_iata]": [
      "static/runtime/webpack-776d5458f349c1ff8e96.js",
      "static/css/commons.2091529f.chunk.css",
      "static/chunks/commons.44ae94e8e51a83918ec7.js",
      "static/css/styles.07b9574d.chunk.css",
      "static/chunks/styles.82f9d5dade789899e195.js",
      "static/runtime/main-4df0a69ba709ea438d84.js"
    ]
  }
}