{
  "./CustomMap": [
    {
      "id": "gUJn",
      "name": "./src/containers/ErrorContainer/styles.scss",
      "file": "static/chunks/styles.82f9d5dade789899e195.js",
      "publicPath": "static/chunks/styles.82f9d5dade789899e195.js"
    },
    {
      "id": 2,
      "name": null,
      "file": "static/chunks/styles.82f9d5dade789899e195.js",
      "publicPath": "static/chunks/styles.82f9d5dade789899e195.js"
    },
    {
      "id": "NzGr",
      "name": "./src/components/application/header-filters/header-filters.styles.scss",
      "file": "static/chunks/styles.82f9d5dade789899e195.js",
      "publicPath": "static/chunks/styles.82f9d5dade789899e195.js"
    },
    {
      "id": 15,
      "name": null,
      "file": "static/chunks/styles.82f9d5dade789899e195.js",
      "publicPath": "static/chunks/styles.82f9d5dade789899e195.js"
    },
    {
      "id": "S8h5",
      "name": "./src/components/application/header-filters/header-filters.styles.mobile.scss",
      "file": "static/chunks/styles.82f9d5dade789899e195.js",
      "publicPath": "static/chunks/styles.82f9d5dade789899e195.js"
    },
    {
      "id": 16,
      "name": null,
      "file": "static/chunks/styles.82f9d5dade789899e195.js",
      "publicPath": "static/chunks/styles.82f9d5dade789899e195.js"
    },
    {
      "id": "Q58H",
      "name": "./src/components/application/header-costs/header-costs.styles.scss",
      "file": "static/chunks/styles.82f9d5dade789899e195.js",
      "publicPath": "static/chunks/styles.82f9d5dade789899e195.js"
    },
    {
      "id": 17,
      "name": null,
      "file": "static/chunks/styles.82f9d5dade789899e195.js",
      "publicPath": "static/chunks/styles.82f9d5dade789899e195.js"
    },
    {
      "id": "BL1G",
      "name": "./src/components/application/results/FiltersDetails/styles.scss",
      "file": "static/chunks/styles.82f9d5dade789899e195.js",
      "publicPath": "static/chunks/styles.82f9d5dade789899e195.js"
    },
    {
      "id": 18,
      "name": null,
      "file": "static/chunks/styles.82f9d5dade789899e195.js",
      "publicPath": "static/chunks/styles.82f9d5dade789899e195.js"
    },
    {
      "id": "/mnI",
      "name": "./src/components/application/results/FiltersDetails/styles.mobile.scss",
      "file": "static/chunks/styles.82f9d5dade789899e195.js",
      "publicPath": "static/chunks/styles.82f9d5dade789899e195.js"
    },
    {
      "id": 19,
      "name": null,
      "file": "static/chunks/styles.82f9d5dade789899e195.js",
      "publicPath": "static/chunks/styles.82f9d5dade789899e195.js"
    },
    {
      "id": "HzH2",
      "name": "./src/components/application/results/FilterDropdownSection/styles.scss",
      "file": "static/chunks/styles.82f9d5dade789899e195.js",
      "publicPath": "static/chunks/styles.82f9d5dade789899e195.js"
    },
    {
      "id": 20,
      "name": null,
      "file": "static/chunks/styles.82f9d5dade789899e195.js",
      "publicPath": "static/chunks/styles.82f9d5dade789899e195.js"
    },
    {
      "id": "P5Gt",
      "name": "./node_modules/react-input-range/lib/css/index.css",
      "file": "static/chunks/styles.82f9d5dade789899e195.js",
      "publicPath": "static/chunks/styles.82f9d5dade789899e195.js"
    },
    {
      "id": 21,
      "name": null,
      "file": "static/chunks/styles.82f9d5dade789899e195.js",
      "publicPath": "static/chunks/styles.82f9d5dade789899e195.js"
    },
    {
      "id": "kqQL",
      "name": "./src/components/shared/RangeSlider/styles.scss",
      "file": "static/chunks/styles.82f9d5dade789899e195.js",
      "publicPath": "static/chunks/styles.82f9d5dade789899e195.js"
    },
    {
      "id": 22,
      "name": null,
      "file": "static/chunks/styles.82f9d5dade789899e195.js",
      "publicPath": "static/chunks/styles.82f9d5dade789899e195.js"
    },
    {
      "id": "rzUo",
      "name": "./src/components/shared/Checkbox/styles.scss",
      "file": "static/chunks/styles.82f9d5dade789899e195.js",
      "publicPath": "static/chunks/styles.82f9d5dade789899e195.js"
    },
    {
      "id": 23,
      "name": null,
      "file": "static/chunks/styles.82f9d5dade789899e195.js",
      "publicPath": "static/chunks/styles.82f9d5dade789899e195.js"
    },
    {
      "id": "iqkk",
      "name": "./src/components/application/results/ResultSorting/styles.scss",
      "file": "static/chunks/styles.82f9d5dade789899e195.js",
      "publicPath": "static/chunks/styles.82f9d5dade789899e195.js"
    },
    {
      "id": 24,
      "name": null,
      "file": "static/chunks/styles.82f9d5dade789899e195.js",
      "publicPath": "static/chunks/styles.82f9d5dade789899e195.js"
    },
    {
      "id": "FOf+",
      "name": "./src/components/application/results/ResultSorting/styles.mobile.scss",
      "file": "static/chunks/styles.82f9d5dade789899e195.js",
      "publicPath": "static/chunks/styles.82f9d5dade789899e195.js"
    },
    {
      "id": 25,
      "name": null,
      "file": "static/chunks/styles.82f9d5dade789899e195.js",
      "publicPath": "static/chunks/styles.82f9d5dade789899e195.js"
    },
    {
      "id": "3Bhi",
      "name": "./src/components/application/results/ResultDetailedItem/style.scss",
      "file": "static/chunks/styles.82f9d5dade789899e195.js",
      "publicPath": "static/chunks/styles.82f9d5dade789899e195.js"
    },
    {
      "id": 26,
      "name": null,
      "file": "static/chunks/styles.82f9d5dade789899e195.js",
      "publicPath": "static/chunks/styles.82f9d5dade789899e195.js"
    },
    {
      "id": "BdYQ",
      "name": "./src/components/application/results/ResultDetailedItem/style.mobile.scss",
      "file": "static/chunks/styles.82f9d5dade789899e195.js",
      "publicPath": "static/chunks/styles.82f9d5dade789899e195.js"
    },
    {
      "id": 27,
      "name": null,
      "file": "static/chunks/styles.82f9d5dade789899e195.js",
      "publicPath": "static/chunks/styles.82f9d5dade789899e195.js"
    },
    {
      "id": "NnTR",
      "name": "./src/components/application/results/ResultOfferItem/style.scss",
      "file": "static/chunks/styles.82f9d5dade789899e195.js",
      "publicPath": "static/chunks/styles.82f9d5dade789899e195.js"
    },
    {
      "id": 28,
      "name": null,
      "file": "static/chunks/styles.82f9d5dade789899e195.js",
      "publicPath": "static/chunks/styles.82f9d5dade789899e195.js"
    },
    {
      "id": "06Mq",
      "name": "./src/components/application/results/CustomMap/CustomMap.scss",
      "file": "static/chunks/styles.82f9d5dade789899e195.js",
      "publicPath": "static/chunks/styles.82f9d5dade789899e195.js"
    },
    {
      "id": 29,
      "name": null,
      "file": "static/chunks/styles.82f9d5dade789899e195.js",
      "publicPath": "static/chunks/styles.82f9d5dade789899e195.js"
    },
    {
      "id": "4R65",
      "name": "./node_modules/leaflet/dist/leaflet-src.js",
      "file": "static/chunks/10.bcb7e43cb0ebf25fa37a.js",
      "publicPath": "static/chunks/10.bcb7e43cb0ebf25fa37a.js"
    },
    {
      "id": "CNL9",
      "name": "./src/components/application/results/CustomMap/CustomMap.tsx",
      "file": "static/chunks/10.bcb7e43cb0ebf25fa37a.js",
      "publicPath": "static/chunks/10.bcb7e43cb0ebf25fa37a.js"
    },
    {
      "id": "HVLH",
      "name": "./node_modules/react-leaflet/es/MapComponent.js",
      "file": "static/chunks/10.bcb7e43cb0ebf25fa37a.js",
      "publicPath": "static/chunks/10.bcb7e43cb0ebf25fa37a.js"
    },
    {
      "id": "VhEB",
      "name": "./node_modules/react-leaflet/es/context.js",
      "file": "static/chunks/10.bcb7e43cb0ebf25fa37a.js",
      "publicPath": "static/chunks/10.bcb7e43cb0ebf25fa37a.js"
    },
    {
      "id": "aUsF",
      "name": "./node_modules/fast-deep-equal/index.js",
      "file": "static/chunks/10.bcb7e43cb0ebf25fa37a.js",
      "publicPath": "static/chunks/10.bcb7e43cb0ebf25fa37a.js"
    },
    {
      "id": "oN5u",
      "name": "./node_modules/react-leaflet/es/MapEvented.js",
      "file": "static/chunks/10.bcb7e43cb0ebf25fa37a.js",
      "publicPath": "static/chunks/10.bcb7e43cb0ebf25fa37a.js"
    },
    {
      "id": "r0zD",
      "name": "./node_modules/react-leaflet/es/MapLayer.js",
      "file": "static/chunks/10.bcb7e43cb0ebf25fa37a.js",
      "publicPath": "static/chunks/10.bcb7e43cb0ebf25fa37a.js"
    },
    {
      "id": "rePB",
      "name": "./node_modules/@babel/runtime/helpers/esm/defineProperty.js",
      "file": "static/chunks/10.bcb7e43cb0ebf25fa37a.js",
      "publicPath": "static/chunks/10.bcb7e43cb0ebf25fa37a.js"
    },
    {
      "id": "wnKL",
      "name": "./node_modules/react-leaflet/es/utils/updateClassName.js",
      "file": "static/chunks/10.bcb7e43cb0ebf25fa37a.js",
      "publicPath": "static/chunks/10.bcb7e43cb0ebf25fa37a.js"
    }
  ],
  "./Marker": [
    {
      "id": "R2pS",
      "name": "./public/images/destination-marker.png",
      "file": "static/chunks/11.411a504595356b8c57e4.js",
      "publicPath": "static/chunks/11.411a504595356b8c57e4.js"
    },
    {
      "id": "k0sj",
      "name": "./src/components/application/results/CustomMap/Marker/Marker.tsx",
      "file": "static/chunks/11.411a504595356b8c57e4.js",
      "publicPath": "static/chunks/11.411a504595356b8c57e4.js"
    }
  ]
}