<?xml version="1.0" encoding="utf-8"?>
<!-- Generator: Adobe Illustrator 16.0.0, SVG Export Plug-In . SVG Version: 6.00 Build 0)  -->
<!DOCTYPE svg PUBLIC "-//W3C//DTD SVG 1.1//EN" "http://www.w3.org/Graphics/SVG/1.1/DTD/svg11.dtd">
<svg version="1.1" id="Слой_1" xmlns="http://www.w3.org/2000/svg" xmlns:xlink="http://www.w3.org/1999/xlink" x="0px" y="0px"
	 width="45.09px" height="42.227px" viewBox="70.932 88.143 45.09 42.227" enable-background="new 70.932 88.143 45.09 42.227"
	 xml:space="preserve">
<g enable-background="new    ">
	<path d="M72.849,105.603V91.058h1.622v13.013h6.152v1.532H72.849z"/>
	<path d="M95.093,98.311c0,2.328-0.564,4.158-1.692,5.491c-1.129,1.333-2.699,1.999-4.708,1.999c-2.054,0-3.64-0.654-4.755-1.965
		c-1.116-1.309-1.674-3.158-1.674-5.546c0-2.368,0.559-4.203,1.678-5.507c1.119-1.303,2.709-1.955,4.77-1.955
		c2.004,0,3.568,0.664,4.693,1.99C94.53,94.145,95.093,95.976,95.093,98.311z M83.98,98.311c0,1.969,0.402,3.463,1.207,4.481
		c0.804,1.019,1.973,1.527,3.505,1.527c1.546,0,2.712-0.507,3.501-1.522c0.788-1.015,1.183-2.51,1.183-4.486
		c0-1.957-0.394-3.441-1.179-4.453c-0.785-1.011-1.947-1.517-3.486-1.517c-1.545,0-2.72,0.509-3.523,1.527
		C84.383,94.887,83.98,96.367,83.98,98.311z"/>
	<path d="M110.374,105.603h-1.603l-2.814-9.739c-0.133-0.432-0.283-0.976-0.447-1.633c-0.166-0.656-0.252-1.051-0.258-1.184
		c-0.141,0.876-0.363,1.834-0.668,2.875l-2.729,9.681h-1.602l-3.711-14.545h1.717l2.203,8.983c0.306,1.26,0.527,2.401,0.668,3.422
		c0.172-1.213,0.426-2.4,0.764-3.561l2.498-8.845h1.718l2.623,8.924c0.306,1.028,0.563,2.188,0.772,3.481
		c0.121-0.941,0.35-2.088,0.688-3.441l2.193-8.964h1.717L110.374,105.603z"/>
</g>
<g enable-background="new    ">
	<path d="M79.5,124.848h-1.748v-13.043h-4.761v-1.502H84.26v1.502H79.5V124.848z"/>
	<path d="M88.27,118.799v6.049h-1.747v-14.545h4.123c1.844,0,3.206,0.342,4.087,1.025c0.881,0.683,1.321,1.711,1.321,3.084
		c0,1.923-1.008,3.223-3.022,3.899l4.082,6.536h-2.067l-3.64-6.049H88.27z M88.27,117.346h2.396c1.234,0,2.139-0.236,2.715-0.711
		c0.575-0.474,0.863-1.186,0.863-2.134c0-0.962-0.293-1.655-0.879-2.079s-1.527-0.637-2.822-0.637H88.27V117.346z"/>
	<path d="M99.539,124.848v-14.545h1.748v14.545H99.539z"/>
	<path d="M114.941,114.541c0,1.473-0.52,2.605-1.557,3.397c-1.039,0.792-2.525,1.188-4.458,1.188h-1.769v5.721h-1.748v-14.545h3.896
		C113.063,110.303,114.941,111.715,114.941,114.541z M107.158,117.675h1.573c1.55,0,2.67-0.242,3.362-0.727
		c0.692-0.483,1.039-1.26,1.039-2.327c0-0.963-0.326-1.679-0.978-2.149c-0.651-0.472-1.665-0.706-3.044-0.706h-1.953V117.675z"/>
</g>
</svg>
